%YAML 1.1
%TAG !u! tag:unity3d.com,2011:
--- !u!64 &3734177662211502540
MeshCollider:
  m_ObjectHideFlags: 0
  m_CorrespondingSourceObject: {fileID: 0}
  m_PrefabInstance: {fileID: 0}
  m_PrefabAsset: {fileID: 0}
  m_GameObject: {fileID: 584400899278963656}
  m_Material: {fileID: 0}
  m_IsTrigger: 0
  m_Enabled: 1
  serializedVersion: 3
  m_Convex: 0
  m_CookingOptions: 14
  m_Mesh: {fileID: 1825875415147931077, guid: f9e801fb07f407644920d50817ab0754, type: 3}
--- !u!1001 &8880492170042038977
PrefabInstance:
  m_ObjectHideFlags: 0
  serializedVersion: 2
  m_Modification:
    m_TransformParent: {fileID: 0}
    m_Modifications:
    - target: {fileID: -4216859302048453862, guid: f9e801fb07f407644920d50817ab0754,
        type: 3}
      propertyPath: m_LocalPosition.x
      value: 0
      objectReference: {fileID: 0}
    - target: {fileID: -4216859302048453862, guid: f9e801fb07f407644920d50817ab0754,
        type: 3}
      propertyPath: m_LocalPosition.y
      value: 0
      objectReference: {fileID: 0}
    - target: {fileID: -4216859302048453862, guid: f9e801fb07f407644920d50817ab0754,
        type: 3}
      propertyPath: m_LocalPosition.z
      value: 0
      objectReference: {fileID: 0}
    - target: {fileID: -4216859302048453862, guid: f9e801fb07f407644920d50817ab0754,
        type: 3}
      propertyPath: m_LocalRotation.x
      value: 0.7071068
      objectReference: {fileID: 0}
    - target: {fileID: -4216859302048453862, guid: f9e801fb07f407644920d50817ab0754,
        type: 3}
      propertyPath: m_LocalRotation.y
      value: 0
      objectReference: {fileID: 0}
    - target: {fileID: -4216859302048453862, guid: f9e801fb07f407644920d50817ab0754,
        type: 3}
      propertyPath: m_LocalRotation.z
      value: 0
      objectReference: {fileID: 0}
    - target: {fileID: -4216859302048453862, guid: f9e801fb07f407644920d50817ab0754,
        type: 3}
      propertyPath: m_LocalRotation.w
      value: 0.7071068
      objectReference: {fileID: 0}
    - target: {fileID: -4216859302048453862, guid: f9e801fb07f407644920d50817ab0754,
        type: 3}
      propertyPath: m_RootOrder
      value: 0
      objectReference: {fileID: 0}
    - target: {fileID: -4216859302048453862, guid: f9e801fb07f407644920d50817ab0754,
        type: 3}
      propertyPath: m_LocalEulerAnglesHint.x
      value: 90
      objectReference: {fileID: 0}
    - target: {fileID: -4216859302048453862, guid: f9e801fb07f407644920d50817ab0754,
        type: 3}
      propertyPath: m_LocalEulerAnglesHint.y
      value: 0
      objectReference: {fileID: 0}
    - target: {fileID: -4216859302048453862, guid: f9e801fb07f407644920d50817ab0754,
        type: 3}
      propertyPath: m_LocalEulerAnglesHint.z
      value: 0
      objectReference: {fileID: 0}
    - target: {fileID: -1504981713932161579, guid: f9e801fb07f407644920d50817ab0754,
        type: 3}
      propertyPath: m_Materials.Array.data[0]
      value: 
      objectReference: {fileID: 2100000, guid: ea1e13ffc71098e4187ffbd457e50818, type: 2}
    - target: {fileID: -927199367670048503, guid: f9e801fb07f407644920d50817ab0754,
        type: 3}
      propertyPath: m_Name
      value: Rubber3 Variant
      objectReference: {fileID: 0}
    - target: {fileID: -927199367670048503, guid: f9e801fb07f407644920d50817ab0754,
        type: 3}
      propertyPath: m_TagString
      value: Defect
      objectReference: {fileID: 0}
    m_RemovedComponents: []
  m_SourcePrefab: {fileID: 100100000, guid: f9e801fb07f407644920d50817ab0754, type: 3}
--- !u!1 &584400899278963656 stripped
GameObject:
  m_CorrespondingSourceObject: {fileID: -927199367670048503, guid: f9e801fb07f407644920d50817ab0754,
    type: 3}
  m_PrefabInstance: {fileID: 8880492170042038977}
  m_PrefabAsset: {fileID: 0}
